<?xml version="1.0" encoding="UTF-8" standalone="no"?>
<!-- Created with Inkscape (http://www.inkscape.org/) -->

<svg
   xmlns:dc="http://purl.org/dc/elements/1.1/"
   xmlns:cc="http://creativecommons.org/ns#"
   xmlns:rdf="http://www.w3.org/1999/02/22-rdf-syntax-ns#"
   xmlns:svg="http://www.w3.org/2000/svg"
   xmlns="http://www.w3.org/2000/svg"
   xmlns:sodipodi="http://sodipodi.sourceforge.net/DTD/sodipodi-0.dtd"
   xmlns:inkscape="http://www.inkscape.org/namespaces/inkscape"
   sodipodi:docname="calibrage_power_min_laser.svg"
   inkscape:version="0.92.3 (2405546, 2018-03-11)"
   id="svg972"
   version="1.1"
   viewBox="0 0 210 297"
   height="297mm"
   width="210mm">
  <defs
     id="defs966" />
  <sodipodi:namedview
     inkscape:window-maximized="1"
     inkscape:window-y="27"
     inkscape:window-x="59"
     inkscape:window-height="1016"
     inkscape:window-width="1861"
     showgrid="false"
     inkscape:current-layer="layer1"
     inkscape:document-units="mm"
     inkscape:cy="90.839517"
     inkscape:cx="17.960453"
     inkscape:zoom="2.8"
     inkscape:pageshadow="2"
     inkscape:pageopacity="0.0"
     borderopacity="1.0"
     bordercolor="#666666"
     pagecolor="#ffffff"
     id="base" />
  <metadata
     id="metadata969">
    <rdf:RDF>
      <cc:Work
         rdf:about="">
        <dc:format>image/svg+xml</dc:format>
        <dc:type
           rdf:resource="http://purl.org/dc/dcmitype/StillImage" />
        <dc:title />
      </cc:Work>
    </rdf:RDF>
  </metadata>
  <g
     inkscape:groupmode="layer"
     id="layer2"
     inkscape:label="DECOUPE"
     style="display:inline">
    <path
       inkscape:connector-curvature="0"
       style="display:inline;opacity:1;fill:none;fill-opacity:1;stroke:#000000;stroke-width:0;stroke-miterlimit:4;stroke-dasharray:none;stroke-dashoffset:0;stroke-opacity:1"
       d="M 5e-7,245 H 52.000011 v 52 H 5e-7 Z"
       id="rect2478" />
  </g>
  <g
     inkscape:label="GRAVURE"
     inkscape:groupmode="layer"
     id="layer1">
    <path
       id="path861"
       style="fill:none;stroke:#000000;stroke-width:0.07936508"
       d="m 47.500739,291.01859 -0.238095,0.0794 -0.15873,0.2381 -0.07937,0.39682 v 0.2381 l 0.07937,0.39683 0.15873,0.23809 0.238095,0.0794 h 0.15873 l 0.238095,-0.0794 0.15873,-0.23809 0.07937,-0.39683 v -0.2381 l -0.07937,-0.39682 -0.15873,-0.2381 -0.238095,-0.0794 h -0.15873"
       inkscape:connector-curvature="0" />
    <path
       inkscape:connector-curvature="0"
       d="m 47.174808,285.0718 h 0.84581 l -0.46135,0.61514 h 0.23068 l 0.15378,0.0769 0.0769,0.0769 0.0769,0.23067 v 0.15379 l -0.0769,0.23067 -0.15378,0.15379 -0.23068,0.0769 h -0.23067 l -0.23068,-0.0769 -0.0769,-0.0769 -0.0769,-0.15379"
       style="fill:none;stroke:#000000;stroke-width:0.07689223"
       id="path1015-7" />
    <path
       inkscape:connector-curvature="0"
       d="m 47.790887,283.11026 -0.76892,1.07649 h 1.15338 m -0.38446,-1.07649 v 1.61474"
       style="fill:none;stroke:#000000;stroke-width:0.07689223"
       id="path1017-3" />
    <path
       inkscape:connector-curvature="0"
       d="m 47.943738,281.07181 h -0.76892 l -0.0769,0.69203 0.0769,-0.0769 0.23067,-0.0769 h 0.23068 l 0.23068,0.0769 0.15378,0.15379 0.0769,0.23067 v 0.15379 l -0.0769,0.23067 -0.15378,0.15379 -0.23068,0.0769 h -0.23068 l -0.23067,-0.0769 -0.0769,-0.0769 -0.0769,-0.15379"
       style="fill:none;stroke:#000000;stroke-width:0.07689223"
       id="path1019-6" />
    <path
       inkscape:connector-curvature="0"
       d="m 47.984213,279.30248 -0.0769,-0.15378 -0.23068,-0.0769 h -0.15378 l -0.23068,0.0769 -0.153779,0.23067 -0.0769,0.38446 v 0.38446 l 0.0769,0.30757 0.153779,0.15379 0.23068,0.0769 h 0.0769 l 0.23068,-0.0769 0.15378,-0.15379 0.0769,-0.23067 v -0.0769 l -0.0769,-0.23067 -0.15378,-0.15379 -0.23068,-0.0769 h -0.0769 l -0.23068,0.0769 -0.153779,0.15379 -0.0769,0.23067"
       style="fill:none;stroke:#000000;stroke-width:0.07689223"
       id="path1021-1" />
    <path
       inkscape:connector-curvature="0"
       d="m 48.082197,277.09372 -0.76893,1.61474 m -0.30757,-1.61474 h 1.076501"
       style="fill:none;stroke:#000000;stroke-width:0.07689223"
       id="path1023-2" />
    <path
       inkscape:connector-curvature="0"
       d="m 47.407523,275.07176 -0.23067,0.0769 -0.0769,0.15378 v 0.15378 l 0.0769,0.15379 0.15378,0.0769 0.30757,0.0769 0.23068,0.0769 0.15378,0.15378 0.0769,0.15378 v 0.23068 l -0.0769,0.15379 -0.0769,0.0769 -0.23068,0.0769 h -0.30756 l -0.23068,-0.0769 -0.0769,-0.0769 -0.0769,-0.15379 v -0.23068 l 0.0769,-0.15378 0.15378,-0.15378 0.23068,-0.0769 0.30757,-0.0769 0.15378,-0.0769 0.0769,-0.15379 v -0.15378 l -0.0769,-0.15378 -0.23067,-0.0769 h -0.30757"
       style="fill:none;stroke:#000000;stroke-width:0.07689223"
       id="path1025-9" />
    <path
       inkscape:connector-curvature="0"
       d="m 48.061113,273.61005 -0.0769,0.23068 -0.15378,0.15378 -0.23068,0.0769 h -0.0769 l -0.23068,-0.0769 -0.153779,-0.15378 -0.0769,-0.23068 v -0.0769 l 0.0769,-0.23068 0.153779,-0.15378 0.23068,-0.0769 h 0.0769 l 0.23068,0.0769 0.15378,0.15378 0.0769,0.30757 v 0.38446 l -0.0769,0.38446 -0.15378,0.23068 -0.23068,0.0769 h -0.153779 l -0.23068,-0.0769 -0.0769,-0.15379"
       style="fill:none;stroke:#000000;stroke-width:0.07689223"
       id="path1027-3" />
    <path
       inkscape:connector-curvature="0"
       d="m 47.484408,271.07179 -0.23067,0.0769 -0.15379,0.23067 -0.0769,0.38446 v 0.23068 l 0.0769,0.38446 0.15379,0.23068 0.23067,0.0769 h 0.15379 l 0.23067,-0.0769 0.15379,-0.23068 0.0769,-0.38446 v -0.23068 l -0.0769,-0.38446 -0.15379,-0.23067 -0.23067,-0.0769 h -0.15379"
       style="fill:none;stroke:#000000;stroke-width:0.07689223"
       id="path1029-1" />
    <path
       inkscape:connector-curvature="0"
       d="m 45.771145,271.41783 0.153785,-0.0769 0.230676,-0.23068 v 1.61474"
       style="fill:none;stroke:#000000;stroke-width:0.07689223"
       id="path1011-8-4" />
    <path
       inkscape:connector-curvature="0"
       d="m 47.358448,269.41782 0.15378,-0.0769 0.23068,-0.23068 v 1.61474"
       style="fill:none;stroke:#000000;stroke-width:0.07689223"
       id="path1011-7" />
    <path
       inkscape:connector-curvature="0"
       d="m 45.771145,269.41782 0.153785,-0.0769 0.230676,-0.23068 v 1.61474"
       style="fill:none;stroke:#000000;stroke-width:0.07689223"
       id="path1011-8-8" />
    <path
       inkscape:connector-curvature="0"
       d="m 47.146337,267.45626 v -0.0769 l 0.0769,-0.15378 0.0769,-0.0769 0.15378,-0.0769 h 0.30757 l 0.15379,0.0769 0.0769,0.0769 0.0769,0.15378 v 0.15379 l -0.0769,0.15378 -0.15379,0.23068 -0.76892,0.76892 h 1.07649"
       style="fill:none;stroke:#000000;stroke-width:0.07689223"
       id="path1013-7-6" />
    <path
       inkscape:connector-curvature="0"
       d="m 45.771145,267.41782 0.153785,-0.0769 0.230676,-0.23068 v 1.61474"
       style="fill:none;stroke:#000000;stroke-width:0.07689223"
       id="path1011-8-1" />
    <path
       inkscape:connector-curvature="0"
       d="m 47.174808,265.07177 h 0.84581 l -0.46135,0.61514 h 0.23068 l 0.15378,0.0769 0.0769,0.0769 0.0769,0.23067 v 0.15379 l -0.0769,0.23067 -0.15378,0.15379 -0.23068,0.0769 h -0.23067 l -0.23068,-0.0769 -0.0769,-0.0769 -0.0769,-0.15379"
       style="fill:none;stroke:#000000;stroke-width:0.07689223"
       id="path1015-8" />
    <path
       inkscape:connector-curvature="0"
       d="m 45.771145,265.41782 0.153785,-0.0769 0.230676,-0.23068 v 1.61474"
       style="fill:none;stroke:#000000;stroke-width:0.07689223"
       id="path1011-8-2" />
    <path
       inkscape:connector-curvature="0"
       d="m 47.790887,263.03471 -0.76892,1.07649 h 1.15338 m -0.38446,-1.07649 v 1.61474"
       style="fill:none;stroke:#000000;stroke-width:0.07689223"
       id="path1017-4" />
    <path
       inkscape:connector-curvature="0"
       d="m 45.771145,263.3975 0.153785,-0.0769 0.230676,-0.23068 v 1.61474"
       style="fill:none;stroke:#000000;stroke-width:0.07689223"
       id="path1011-8-9" />
    <path
       inkscape:connector-curvature="0"
       d="m 47.943738,261.04613 h -0.76892 l -0.0769,0.69203 0.0769,-0.0769 0.23067,-0.0769 h 0.23068 l 0.23068,0.0769 0.15378,0.15379 0.0769,0.23067 v 0.15379 l -0.0769,0.23067 -0.15378,0.15379 -0.23068,0.0769 h -0.23068 l -0.23067,-0.0769 -0.0769,-0.0769 -0.0769,-0.15379"
       style="fill:none;stroke:#000000;stroke-width:0.07689223"
       id="path1019-5" />
    <path
       inkscape:connector-curvature="0"
       d="m 45.771145,261.39635 0.153785,-0.0769 0.230676,-0.23068 v 1.61474"
       style="fill:none;stroke:#000000;stroke-width:0.07689223"
       id="path1011-8-3" />
    <path
       inkscape:connector-curvature="0"
       d="m 48.082197,257.05867 -0.76893,1.61474 m -0.30757,-1.61474 h 1.076501"
       style="fill:none;stroke:#000000;stroke-width:0.07689223"
       id="path1023-3" />
    <path
       inkscape:connector-curvature="0"
       d="m 45.771145,257.39405 0.153785,-0.0769 0.230676,-0.23068 v 1.61474"
       style="fill:none;stroke:#000000;stroke-width:0.07689223"
       id="path1011-8-88" />
    <path
       inkscape:connector-curvature="0"
       d="m 47.407523,255.05395 -0.23067,0.0769 -0.0769,0.15378 v 0.15378 l 0.0769,0.15379 0.15378,0.0769 0.30757,0.0769 0.23068,0.0769 0.15378,0.15378 0.0769,0.15378 v 0.23068 l -0.0769,0.15379 -0.0769,0.0769 -0.23068,0.0769 h -0.30756 l -0.23068,-0.0769 -0.0769,-0.0769 -0.0769,-0.15379 v -0.23068 l 0.0769,-0.15378 0.15378,-0.15378 0.23068,-0.0769 0.30757,-0.0769 0.15378,-0.0769 0.0769,-0.15379 v -0.15378 l -0.0769,-0.15378 -0.23067,-0.0769 h -0.30757"
       style="fill:none;stroke:#000000;stroke-width:0.07689223"
       id="path1025-6" />
    <path
       inkscape:connector-curvature="0"
       d="m 45.771145,255.3929 0.153785,-0.0769 0.230676,-0.23068 v 1.61474"
       style="fill:none;stroke:#000000;stroke-width:0.07689223"
       id="path1011-8-5" />
    <path
       inkscape:connector-curvature="0"
       d="m 48.061113,253.58751 -0.0769,0.23068 -0.15378,0.15378 -0.23068,0.0769 h -0.0769 l -0.23068,-0.0769 -0.153779,-0.15378 -0.0769,-0.23068 v -0.0769 l 0.0769,-0.23068 0.153779,-0.15378 0.23068,-0.0769 h 0.0769 l 0.23068,0.0769 0.15378,0.15378 0.0769,0.30757 v 0.38446 l -0.0769,0.38446 -0.15378,0.23068 -0.23068,0.0769 h -0.153779 l -0.23068,-0.0769 -0.0769,-0.15379"
       style="fill:none;stroke:#000000;stroke-width:0.07689223"
       id="path1027-1" />
    <path
       inkscape:connector-curvature="0"
       d="m 45.771145,253.39175 0.153785,-0.0769 0.230676,-0.23068 v 1.61474"
       style="fill:none;stroke:#000000;stroke-width:0.07689223"
       id="path1011-8-0" />
    <path
       inkscape:connector-curvature="0"
       d="m 47.484408,251.04456 -0.23067,0.0769 -0.15379,0.23067 -0.0769,0.38446 v 0.23068 l 0.0769,0.38446 0.15379,0.23068 0.23067,0.0769 h 0.15379 l 0.23067,-0.0769 0.15379,-0.23068 0.0769,-0.38446 v -0.23068 l -0.0769,-0.38446 -0.15379,-0.23067 -0.23067,-0.0769 h -0.15379"
       style="fill:none;stroke:#000000;stroke-width:0.07689223"
       id="path1029-0" />
    <path
       inkscape:connector-curvature="0"
       d="m 45.559035,251.42905 v -0.0769 l 0.0769,-0.15378 0.0769,-0.0769 0.15378,-0.0769 h 0.30757 l 0.15379,0.0769 0.0769,0.0769 0.0769,0.15378 v 0.15379 l -0.0769,0.15378 -0.15379,0.23068 -0.76892,0.76892 h 1.07649"
       style="fill:none;stroke:#000000;stroke-width:0.07689223"
       id="path1013-7-96" />
    <path
       inkscape:connector-curvature="0"
       d="m 47.146337,287.45628 v -0.0769 l 0.0769,-0.15378 0.0769,-0.0769 0.15378,-0.0769 h 0.30757 l 0.15379,0.0769 0.0769,0.0769 0.0769,0.15378 v 0.15379 l -0.0769,0.15378 -0.15379,0.23068 -0.76892,0.76892 h 1.07649"
       style="fill:none;stroke:#000000;stroke-width:0.07689223"
       id="path1013-7-9" />
    <path
       inkscape:connector-curvature="0"
       d="m 47.358448,289.41785 0.15378,-0.0769 0.23068,-0.23068 v 1.61474"
       style="fill:none;stroke:#000000;stroke-width:0.07689223"
       id="path1011-89" />
    <path
       inkscape:connector-curvature="0"
       d="m 47.984213,259.27211 -0.0769,-0.15378 -0.23068,-0.0769 h -0.15378 l -0.23068,0.0769 -0.153779,0.23067 -0.0769,0.38446 v 0.38446 l 0.0769,0.30757 0.153779,0.15379 0.23068,0.0769 h 0.0769 l 0.23068,-0.0769 0.15378,-0.15379 0.0769,-0.23067 v -0.0769 l -0.0769,-0.23067 -0.15378,-0.15379 -0.23068,-0.0769 h -0.0769 l -0.23068,0.0769 -0.153779,0.15379 -0.0769,0.23067"
       style="fill:none;stroke:#000000;stroke-width:0.07689223"
       id="path1021-0" />
    <path
       inkscape:connector-curvature="0"
       d="m 45.771145,259.3952 0.153785,-0.0769 0.230676,-0.23068 v 1.61474"
       style="fill:none;stroke:#000000;stroke-width:0.07689223"
       id="path1011-8-90" />
    <path
       id="path2263"
       style="display:inline;fill:none;stroke:#000000;stroke-width:0.12407995"
       d="m 2.9232405,246.5741 -0.12408,-0.24816 -0.24816,-0.24816 -0.24816,-0.12408 h -0.49632 l -0.24816,0.12408 -0.24816,0.24816 -0.12408,0.24816 -0.12408,0.37224 v 0.6204 l 0.12408,0.37224 0.12408,0.24816 0.24816,0.24816 0.24816,0.12408 h 0.49632 l 0.24816,-0.12408 0.24816,-0.24816 0.12408,-0.24816"
       inkscape:connector-curvature="0" />
    <path
       id="path2265"
       style="display:inline;fill:none;stroke:#000000;stroke-width:0.12407995"
       d="m 5.1566805,246.82226 v 1.73712 m 0,-1.36488 -0.24816,-0.24816 -0.24816,-0.12408 h -0.37224 l -0.24816,0.12408 -0.24816,0.24816 -0.12408,0.37224 v 0.24816 l 0.12408,0.37224 0.24816,0.24816 0.24816,0.12408 h 0.37224 l 0.24816,-0.12408 0.24816,-0.24816"
       inkscape:connector-curvature="0" />
    <path
       id="path2267"
       style="display:inline;fill:none;stroke:#000000;stroke-width:0.12407995"
       d="m 6.1493205,245.9537 v 2.60568"
       inkscape:connector-curvature="0" />
    <path
       id="path2269"
       style="display:inline;fill:none;stroke:#000000;stroke-width:0.12407995"
       d="m 7.0178805,245.9537 0.12408,0.12408 0.12408,-0.12408 -0.12408,-0.12408 -0.12408,0.12408 m 0.12408,0.86856 v 1.73712"
       inkscape:connector-curvature="0" />
    <path
       id="path2271"
       style="display:inline;fill:none;stroke:#000000;stroke-width:0.12407995"
       d="m 8.1346005,245.9537 v 2.60568 m 0,-1.36488 0.24816,-0.24816 0.24816,-0.12408 h 0.37224 l 0.24816,0.12408 0.24816,0.24816 0.12408,0.37224 v 0.24816 l -0.12408,0.37224 -0.24816,0.24816 -0.24816,0.12408 h -0.37224 l -0.24816,-0.12408 -0.24816,-0.24816"
       inkscape:connector-curvature="0" />
    <path
       id="path2273"
       style="display:inline;fill:none;stroke:#000000;stroke-width:0.12407995"
       d="m 10.49212,246.82226 v 1.73712 m 0,-0.99264 0.12408,-0.37224 0.248161,-0.24816 0.24816,-0.12408 h 0.37224"
       inkscape:connector-curvature="0" />
    <path
       id="path2275"
       style="display:inline;fill:none;stroke:#000000;stroke-width:0.12407995"
       d="m 13.470041,246.82226 v 1.73712 m 0,-1.36488 -0.248161,-0.24816 -0.24816,-0.12408 h -0.37224 l -0.24816,0.12408 -0.24816,0.24816 -0.12408,0.37224 v 0.24816 l 0.12408,0.37224 0.24816,0.24816 0.24816,0.12408 h 0.37224 l 0.24816,-0.12408 0.248161,-0.24816"
       inkscape:connector-curvature="0" />
    <path
       id="path2277"
       style="display:inline;fill:none;stroke:#000000;stroke-width:0.12407995"
       d="m 15.827561,246.82226 v 1.98528 l -0.12408,0.37224 -0.12408,0.12408 -0.24816,0.12408 h -0.37224 l -0.248161,-0.12408 m 1.11672,-2.10936 -0.24816,-0.24816 -0.24816,-0.12408 H 14.959 l -0.24816,0.12408 -0.24816,0.24816 -0.12408,0.37224 v 0.24816 l 0.12408,0.37224 0.24816,0.24816 0.24816,0.12408 h 0.37224 l 0.24816,-0.12408 0.24816,-0.24816"
       inkscape:connector-curvature="0" />
    <path
       id="path2279"
       style="display:inline;fill:none;stroke:#000000;stroke-width:0.12407995"
       d="m 16.696121,247.56674 h 1.488959 v -0.24816 l -0.124079,-0.24816 -0.12408,-0.12408 -0.248161,-0.12408 h -0.37224 l -0.24816,0.12408 -0.24816,0.24816 -0.12408,0.37224 v 0.24816 l 0.12408,0.37224 0.24816,0.24816 0.24816,0.12408 h 0.37224 l 0.248161,-0.12408 0.24816,-0.24816"
       inkscape:connector-curvature="0" />
    <path
       id="path2283"
       style="display:inline;fill:none;stroke:#000000;stroke-width:0.12407995"
       d="m 20.790751,246.82226 0.74448,1.73712 m 0.74448,-1.73712 -0.74448,1.73712"
       inkscape:connector-curvature="0" />
    <path
       id="path2285"
       style="display:inline;fill:none;stroke:#000000;stroke-width:0.12407995"
       d="m 24.389071,246.82226 v 1.73712 m 0,-1.36488 -0.248161,-0.24816 -0.24816,-0.12408 h -0.37224 l -0.24816,0.12408 -0.24816,0.24816 -0.12408,0.37224 v 0.24816 l 0.12408,0.37224 0.24816,0.24816 0.24816,0.12408 h 0.37224 l 0.24816,-0.12408 0.248161,-0.24816"
       inkscape:connector-curvature="0" />
    <path
       id="path2287"
       style="display:inline;fill:none;stroke:#000000;stroke-width:0.12407995"
       d="m 25.381711,245.9537 v 2.60568"
       inkscape:connector-curvature="0" />
    <path
       id="path2291"
       style="display:inline;fill:none;stroke:#000000;stroke-width:0.12407995"
       d="m 28.359631,246.82226 v 2.60568 m 0,-2.23344 0.24816,-0.24816 0.24816,-0.12408 h 0.37224 l 0.24816,0.12408 0.24816,0.24816 0.12408,0.37224 v 0.24816 l -0.12408,0.37224 -0.24816,0.24816 -0.24816,0.12408 h -0.37224 l -0.24816,-0.12408 -0.24816,-0.24816"
       inkscape:connector-curvature="0" />
    <path
       id="path2293"
       style="display:inline;fill:none;stroke:#000000;stroke-width:0.12407995"
       d="m 31.21347,246.82226 -0.24816,0.12408 -0.24816,0.24816 -0.12408,0.37224 v 0.24816 l 0.12408,0.37224 0.24816,0.24816 0.24816,0.12408 h 0.372241 l 0.24816,-0.12408 0.24816,-0.24816 0.12408,-0.37224 v -0.24816 l -0.12408,-0.37224 -0.24816,-0.24816 -0.24816,-0.12408 H 31.21347"
       inkscape:connector-curvature="0" />
    <path
       id="path2295"
       style="display:inline;fill:none;stroke:#000000;stroke-width:0.12407995"
       d="m 32.950591,246.82226 0.49632,1.73712 m 0.496319,-1.73712 -0.496319,1.73712 m 0.496319,-1.73712 0.49632,1.73712 m 0.49632,-1.73712 -0.49632,1.73712"
       inkscape:connector-curvature="0" />
    <path
       id="path2297"
       style="display:inline;fill:none;stroke:#000000;stroke-width:0.12407995"
       d="m 35.680351,247.56674 h 1.488959 v -0.24816 l -0.124079,-0.24816 -0.12408,-0.12408 -0.248161,-0.12408 h -0.37224 l -0.24816,0.12408 -0.24816,0.24816 -0.12408,0.37224 v 0.24816 l 0.12408,0.37224 0.24816,0.24816 0.24816,0.12408 h 0.37224 l 0.248161,-0.12408 0.24816,-0.24816"
       inkscape:connector-curvature="0" />
    <path
       id="path2299"
       style="display:inline;fill:none;stroke:#000000;stroke-width:0.12407995"
       d="m 38.037871,246.82226 v 1.73712 m 0,-0.99264 0.12408,-0.37224 0.24816,-0.24816 0.24816,-0.12408 h 0.37224"
       inkscape:connector-curvature="0" />
    <path
       id="path2303"
       style="display:inline;fill:none;stroke:#000000;stroke-width:0.12407995"
       d="m 41.636181,245.9537 v 2.60568"
       inkscape:connector-curvature="0" />
    <path
       id="path2305"
       style="display:inline;fill:none;stroke:#000000;stroke-width:0.12407995"
       d="m 43.993701,246.82226 v 1.73712 m 0,-1.36488 -0.24816,-0.24816 -0.248151,-0.12408 h -0.37224 l -0.248169,0.12408 -0.248161,0.24816 -0.12407,0.37224 v 0.24816 l 0.12407,0.37224 0.248161,0.24816 0.248169,0.12408 h 0.37224 l 0.248151,-0.12408 0.24816,-0.24816"
       inkscape:connector-curvature="0" />
    <path
       id="path2307"
       style="display:inline;fill:none;stroke:#000000;stroke-width:0.12407995"
       d="m 46.227141,247.1945 -0.12407,-0.24816 -0.37224,-0.12408 h -0.37224 l -0.37224,0.12408 -0.12409,0.24816 0.12409,0.24816 0.24815,0.12408 0.6204,0.12408 0.248169,0.12408 0.12407,0.24816 v 0.12408 l -0.12407,0.24816 -0.37224,0.12408 h -0.37224 l -0.37224,-0.12408 -0.12409,-0.24816"
       inkscape:connector-curvature="0" />
    <path
       id="path2309"
       style="display:inline;fill:none;stroke:#000000;stroke-width:0.12407995"
       d="m 46.97162,247.56674 h 1.48896 v -0.24816 l -0.12408,-0.24816 -0.124079,-0.12408 -0.248161,-0.12408 h -0.37224 l -0.24816,0.12408 -0.24816,0.24816 -0.12408,0.37224 v 0.24816 l 0.12408,0.37224 0.24816,0.24816 0.24816,0.12408 h 0.37224 l 0.248161,-0.12408 0.24816,-0.24816"
       inkscape:connector-curvature="0" />
    <path
       id="path2311"
       style="display:inline;fill:none;stroke:#000000;stroke-width:0.12407995"
       d="m 49.329141,246.82226 v 1.73712 m 0,-0.99264 0.12408,-0.37224 0.24816,-0.24816 0.24816,-0.12408 h 0.37224"
       inkscape:connector-curvature="0" />
  </g>
</svg>
