G90
G92 X0 Y0
G21

(fait a la main en pypypython par Laurent en Glenn)
(decalage en x des lignes de test)
(ajout des commandes M10 et M11)

G1 F2000 S0.15
G0 F8000

M10

G0 X1 Y5
G0 Z0.0
G1 X42

G0 X1 Y7
G0 Z0.5
G1 X38

G0 X1 Y9
G0 Z1.0
G1 X42

G0 X1 Y11
G0 Z1.5
G1 X38

G0 X1 Y13
G0 Z2.0
G1 X42

G0 X1 Y15
G0 Z2.5
G1 X38

G0 X1 Y17
G0 Z3.0
G1 X42

G0 X1 Y19
G0 Z3.5
G1 X38

G0 X1 Y21
G0 Z4.0
G1 X42

G0 X1 Y23
G0 Z4.5
G1 X38

G0 X1 Y25
G0 Z5.0
G1 X42

G0 X1 Y27
G0 Z5.5
G1 X38

G0 X1 Y29
G0 Z6.0
G1 X42

G0 X1 Y31
G0 Z6.5
G1 X38

G0 X1 Y33
G0 Z7.0
G1 X42

M11


(Laserengraver_smoothie version 0.07-beta2)
(date: Wed Jun  3 12:02:42 2020)

G0 Z3 F5000
(calque: gravure)
G0 X49.8383 Y22.0771

M10
G1  F1500.000000 S0.1
G1  X67.8383 Y22.0771 F1500.000000 S0.1
M11

G0 X48.8383 Y19.8364

M10
G1  F1500.000000 S0.1
G1  X68.8383 Y19.8364
G1  X68.8383 Y6.8364
G1  X48.8383 Y6.8364
G1  X48.8383 Y19.8364
M11

G0 X44.088 Y19.1622

M10
G1  F1500.000000 S0.1
G1  X45.4372 Y19.1622
G1  X44.7013 Y18.1809
G1  X45.0693 Y18.1809
G1  X45.3146 Y18.0583
G1  X45.4372 Y17.9356
G1  X45.5599 Y17.5677
G1  X45.5599 Y17.3223
G1  X45.4372 Y16.9544
G1  X45.1919 Y16.709
G1  X44.8239 Y16.5864
G1  X44.456 Y16.5864
G1  X44.088 Y16.709
G1  X43.9653 Y16.8317
G1  X43.8427 Y17.077
M11

G0 X44.0426 Y14.2991

M10
G1  F1500.000000 S0.1
G1  X44.0426 Y14.4218
G1  X44.1653 Y14.6671
G1  X44.2879 Y14.7898
G1  X44.5332 Y14.9124
G1  X45.0239 Y14.9124
G1  X45.2692 Y14.7898
G1  X45.3918 Y14.6671
G1  X45.5145 Y14.4218
G1  X45.5145 Y14.1765
G1  X45.3918 Y13.9312
G1  X45.1465 Y13.5632
G1  X43.9199 Y12.3366
G1  X45.6371 Y12.3366
M11

G0 X44.3809 Y10.098

M10
G1  F1500.000000 S0.1
G1  X44.6262 Y10.2206
G1  X44.9942 Y10.5886
G1  X44.9942 Y8.0128
M11

G0 X44.5807 Y6.4249

M10
G1  F1500.000000 S0.1
G1  X44.2093 Y6.3011
G1  X43.9616 Y5.9297
G1  X43.8378 Y5.3106
G1  X43.8378 Y4.9392
G1  X43.9616 Y4.3201
G1  X44.2093 Y3.9487
G1  X44.5807 Y3.8249
G1  X44.8283 Y3.8249
G1  X45.1998 Y3.9487
G1  X45.4474 Y4.3201
G1  X45.5712 Y4.9392
G1  X45.5712 Y5.3106
G1  X45.4474 Y5.9297
G1  X45.1998 Y6.3011
G1  X44.8283 Y6.4249
G1  X44.5807 Y6.4249
M11

G0 X45.0707 Y23.3942

M10
G1  F1500.000000 S0.1
G1  X45.0707 Y20.8184
M11

G0 X45.0707 Y23.3942

M10
G1  F1500.000000 S0.1
G1  X43.8442 Y21.677
G1  X45.684 Y21.677
M11

G0 X45.3146 Y27.6618

M10
G1  F1500.000000 S0.1
G1  X44.088 Y27.6618
G1  X43.9653 Y26.5579
G1  X44.088 Y26.6805
G1  X44.456 Y26.8032
G1  X44.8239 Y26.8032
G1  X45.1919 Y26.6805
G1  X45.4372 Y26.4352
G1  X45.5599 Y26.0673
G1  X45.5599 Y25.8219
G1  X45.4372 Y25.454
G1  X45.1919 Y25.2086
G1  X44.8239 Y25.086
G1  X44.456 Y25.086
G1  X44.088 Y25.2086
G1  X43.9653 Y25.3313
G1  X43.8427 Y25.5766
M11

G0 X45.3791 Y31.5436

M10
G1  F1500.000000 S0.1
G1  X45.2565 Y31.7889
G1  X44.8885 Y31.9116
G1  X44.6432 Y31.9116
G1  X44.2752 Y31.7889
G1  X44.0299 Y31.421
G1  X43.9072 Y30.8077
G1  X43.9072 Y30.1944
G1  X44.0299 Y29.7038
G1  X44.2752 Y29.4584
G1  X44.6432 Y29.3358
G1  X44.7658 Y29.3358
G1  X45.1338 Y29.4584
G1  X45.3791 Y29.7038
G1  X45.5018 Y30.0717
G1  X45.5018 Y30.1944
G1  X45.3791 Y30.5624
G1  X45.1338 Y30.8077
G1  X44.7658 Y30.9303
G1  X44.6432 Y30.9303
G1  X44.2752 Y30.8077
G1  X44.0299 Y30.5624
G1  X43.9072 Y30.1944
M11

G0 X43.8182 Y36.1439

M10
G1  F1500.000000 S0.1
G1  X45.5354 Y36.1439
M11

G0 X45.5354 Y36.1439

M10
G1  F1500.000000 S0.1
G1  X44.3089 Y33.5681
M11

G0 X43.9244 Y38.6893

M10
G1  F1500.000000 S0.1
G1  X45.6796 Y38.6893
G1  X45.6796 Y38.9818
G1  X45.5334 Y39.2743
G1  X45.3871 Y39.4206
G1  X45.0946 Y39.5669
G1  X44.6558 Y39.5669
G1  X44.3632 Y39.4206
G1  X44.0707 Y39.1281
G1  X43.9244 Y38.6893
G1  X43.9244 Y38.3967
G1  X44.0707 Y37.9579
G1  X44.3632 Y37.6654
G1  X44.6558 Y37.5191
G1  X45.0946 Y37.5191
G1  X45.3871 Y37.6654
G1  X45.6796 Y37.9579
M11

G0 X47.472 Y38.2505

M10
G1  F1500.000000 S0.1
G1  X47.3257 Y38.1042
G1  X47.472 Y37.9579
G1  X47.6182 Y38.1042
G1  X47.472 Y38.2505
M11

G0 X47.472 Y39.2743

M10
G1  F1500.000000 S0.1
G1  X47.3257 Y39.1281
G1  X47.472 Y38.9818
G1  X47.6182 Y39.1281
G1  X47.472 Y39.2743
M11

G0 X42.4618 Y40.5907

M10
G1  F1500.000000 S0.1
G1  X42.4618 Y38.1042
G1  X42.608 Y37.6654
G1  X42.9006 Y37.5191
G1  X43.1931 Y37.5191
M11

G0 X42.023 Y39.5669

M10
G1  F1500.000000 S0.1
G1  X43.0468 Y39.5669
M11

G0 X41.1454 Y39.5669

M10
G1  F1500.000000 S0.1
G1  X41.1454 Y37.5191
M11

G0 X41.1454 Y39.1281

M10
G1  F1500.000000 S0.1
G1  X40.8528 Y39.4206
G1  X40.5603 Y39.5669
G1  X40.1215 Y39.5669
G1  X39.829 Y39.4206
G1  X39.5364 Y39.1281
G1  X39.3902 Y38.6893
G1  X39.3902 Y38.3967
G1  X39.5364 Y37.9579
G1  X39.829 Y37.6654
G1  X40.1215 Y37.5191
G1  X40.5603 Y37.5191
G1  X40.8528 Y37.6654
G1  X41.1454 Y37.9579
M11

G0 X36.4648 Y40.5907

M10
G1  F1500.000000 S0.1
G1  X37.4887 Y40.5907
G1  X37.9275 Y40.4445
G1  X38.2201 Y40.1519
G1  X38.3663 Y39.8594
G1  X38.5126 Y39.4206
G1  X38.5126 Y38.6893
G1  X38.3663 Y38.2505
G1  X38.2201 Y37.9579
G1  X37.9275 Y37.6654
G1  X37.4887 Y37.5191
G1  X36.4648 Y37.5191
M11

G0 X36.4648 Y40.5907

M10
G1  F1500.000000 S0.1
G1  X36.4648 Y37.5191
M11

G0 X33.3122 Y45.5459

M10
G1  F1500.000000 S0.1
G1  X36.0933 Y45.5459
G1  X36.0933 Y46.0094
G1  X35.8616 Y46.4729
G1  X35.6298 Y46.7047
G1  X35.1663 Y46.9364
G1  X34.471 Y46.9364
G1  X34.0075 Y46.7047
G1  X33.544 Y46.2412
G1  X33.3122 Y45.5459
G1  X33.3122 Y45.0824
G1  X33.544 Y44.3871
G1  X34.0075 Y43.9236
G1  X34.471 Y43.6918
G1  X35.1663 Y43.6918
G1  X35.6298 Y43.9236
G1  X36.0933 Y44.3871
M11

G0 X31.6899 Y46.2412

M10
G1  F1500.000000 S0.1
G1  X31.2264 Y46.7047
G1  X30.7629 Y46.9364
G1  X30.0676 Y46.9364
G1  X29.6041 Y46.7047
G1  X29.1406 Y46.2412
G1  X28.9089 Y45.5459
G1  X28.9089 Y45.0824
G1  X29.1406 Y44.3871
G1  X29.6041 Y43.9236
G1  X30.0676 Y43.6918
G1  X30.7629 Y43.6918
G1  X31.2264 Y43.9236
G1  X31.6899 Y44.3871
M11

G0 X31.6899 Y46.9364

M10
G1  F1500.000000 S0.1
G1  X31.6899 Y43.2283
G1  X31.4582 Y42.5331
G1  X31.2264 Y42.3013
G1  X30.7629 Y42.0695
G1  X30.0676 Y42.0695
G1  X29.6041 Y42.3013
M11

G0 X27.2866 Y46.2412

M10
G1  F1500.000000 S0.1
G1  X26.8231 Y46.7047
G1  X26.3595 Y46.9364
G1  X25.6643 Y46.9364
G1  X25.2008 Y46.7047
G1  X24.7372 Y46.2412
G1  X24.5055 Y45.5459
G1  X24.5055 Y45.0824
G1  X24.7372 Y44.3871
G1  X25.2008 Y43.9236
G1  X25.6643 Y43.6918
G1  X26.3595 Y43.6918
G1  X26.8231 Y43.9236
G1  X27.2866 Y44.3871
M11

G0 X27.2866 Y46.9364

M10
G1  F1500.000000 S0.1
G1  X27.2866 Y43.6918
M11

G0 X21.7244 Y45.5459

M10
G1  F1500.000000 S0.1
G1  X21.9562 Y46.2412
G1  X22.4197 Y46.7047
G1  X22.8832 Y46.9364
G1  X23.5785 Y46.9364
M11

G0 X21.7244 Y46.9364

M10
G1  F1500.000000 S0.1
G1  X21.7244 Y43.6918
M11

G0 X22.0504 Y39.4993

M10
G1  F1500.000000 S0.1
G1  X22.0504 Y37.5168
M11

G0 X22.0504 Y38.9329

M10
G1  F1500.000000 S0.1
G1  X22.4752 Y39.3577
G1  X22.7584 Y39.4993
G1  X23.1832 Y39.4993
G1  X23.4665 Y39.3577
G1  X23.6081 Y38.9329
G1  X23.6081 Y37.5168
M11

G0 X23.6081 Y38.9329

M10
G1  F1500.000000 S0.1
G1  X24.0329 Y39.3577
G1  X24.3161 Y39.4993
G1  X24.741 Y39.4993
G1  X25.0242 Y39.3577
G1  X25.1658 Y38.9329
G1  X25.1658 Y37.5168
M11

G0 X19.3598 Y38.9329

M10
G1  F1500.000000 S0.1
G1  X19.7846 Y39.3577
G1  X20.0678 Y39.4993
G1  X20.4926 Y39.4993
G1  X20.7759 Y39.3577
G1  X20.9175 Y38.9329
G1  X20.9175 Y37.5168
M11

G0 X17.8021 Y38.9329

M10
G1  F1500.000000 S0.1
G1  X18.2269 Y39.3577
G1  X18.5101 Y39.4993
G1  X18.9349 Y39.4993
G1  X19.2182 Y39.3577
G1  X19.3598 Y38.9329
G1  X19.3598 Y37.5168
M11

G0 X17.8021 Y39.4993

M10
G1  F1500.000000 S0.1
G1  X17.8021 Y37.5168
M11

G0 X15.1115 Y40.4906

M10
G1  F1500.000000 S0.1
G1  X16.6692 Y40.4906
G1  X15.8195 Y39.3577
G1  X16.2443 Y39.3577
G1  X16.5276 Y39.2161
G1  X16.6692 Y39.0745
G1  X16.8108 Y38.6497
G1  X16.8108 Y38.3665
G1  X16.6692 Y37.9416
G1  X16.3859 Y37.6584
G1  X15.9611 Y37.5168
G1  X15.5363 Y37.5168
G1  X15.1115 Y37.6584
G1  X14.9698 Y37.8
G1  X14.8282 Y38.0832
M11

G0 X9.0222 Y38.3665

M10
G1  F1500.000000 S0.1
G1  X11.5712 Y38.3665
M11

G0 X9.0222 Y39.2161

M10
G1  F1500.000000 S0.1
G1  X11.5712 Y39.2161
M11

G0 X11.7589 Y46.2412

M10
G1  F1500.000000 S0.1
G1  X11.2954 Y46.7047
G1  X10.8319 Y46.9364
G1  X10.1366 Y46.9364
G1  X9.6731 Y46.7047
G1  X9.2096 Y46.2412
G1  X8.9778 Y45.5459
G1  X8.9778 Y45.0824
G1  X9.2096 Y44.3871
G1  X9.6731 Y43.9236
G1  X10.1366 Y43.6918
G1  X10.8319 Y43.6918
G1  X11.2954 Y43.9236
G1  X11.7589 Y44.3871
M11

G0 X11.7589 Y46.9364

M10
G1  F1500.000000 S0.1
G1  X11.7589 Y43.6918
M11

G0 X15.467 Y46.9364

M10
G1  F1500.000000 S0.1
G1  X15.467 Y43.6918
M11

G0 X17.321 Y46.2412

M10
G1  F1500.000000 S0.1
G1  X17.7846 Y46.7047
G1  X18.2481 Y46.9364
G1  X18.9433 Y46.9364
G1  X19.4069 Y46.7047
G1  X19.8704 Y46.2412
G1  X20.1021 Y45.5459
G1  X20.1021 Y45.0824
G1  X19.8704 Y44.3871
G1  X19.4069 Y43.9236
G1  X18.9433 Y43.6918
G1  X18.2481 Y43.6918
G1  X17.7846 Y43.9236
G1  X17.321 Y44.3871
M11

G0 X17.321 Y48.5587

M10
G1  F1500.000000 S0.1
G1  X17.321 Y43.6918
M11

G0 X15.2352 Y48.5587

M10
G1  F1500.000000 S0.1
G1  X15.467 Y48.327
G1  X15.6987 Y48.5587
G1  X15.467 Y48.7905
G1  X15.2352 Y48.5587
M11

G0 X13.6129 Y48.5587

M10
G1  F1500.000000 S0.1
G1  X13.6129 Y43.6918
M11

G0 X7.5873 Y47.3999

M10
G1  F1500.000000 S0.1
G1  X7.3555 Y47.8635
G1  X6.892 Y48.327
G1  X6.4285 Y48.5587
G1  X5.5015 Y48.5587
G1  X5.038 Y48.327
G1  X4.5744 Y47.8635
G1  X4.3427 Y47.3999
G1  X4.1109 Y46.7047
G1  X4.1109 Y45.5459
G1  X4.3427 Y44.8506
G1  X4.5744 Y44.3871
G1  X5.038 Y43.9236
G1  X5.5015 Y43.6918
G1  X6.4285 Y43.6918
G1  X6.892 Y43.9236
G1  X7.3555 Y44.3871
G1  X7.5873 Y44.8506
M11

G0 X4.0659 Y38.6497

M10
G1  F1500.000000 S0.1
G1  X5.7652 Y38.6497
G1  X5.7652 Y38.9329
G1  X5.6236 Y39.2161
G1  X5.482 Y39.3577
G1  X5.1987 Y39.4993
G1  X4.7739 Y39.4993
G1  X4.4907 Y39.3577
G1  X4.2075 Y39.0745
G1  X4.0659 Y38.6497
G1  X4.0659 Y38.3665
G1  X4.2075 Y37.9416
G1  X4.4907 Y37.6584
G1  X4.7739 Y37.5168
G1  X5.1987 Y37.5168
G1  X5.482 Y37.6584
G1  X5.7652 Y37.9416
M11

G0 X41.4237 Y46.2412

M10
G1  F1500.000000 S0.1
G1  X43.2778 Y46.2412
M11

G0 X41.4237 Y48.5587

M10
G1  F1500.000000 S0.1
G1  X44.4365 Y48.5587
M11

G0 X46.5223 Y46.9364

M10
G1  F1500.000000 S0.1
G1  X46.0588 Y46.7047
G1  X45.5953 Y46.2412
G1  X45.3636 Y45.5459
G1  X45.3636 Y45.0824
G1  X45.5953 Y44.3871
G1  X46.0588 Y43.9236
G1  X46.5223 Y43.6918
G1  X47.2176 Y43.6918
G1  X47.6811 Y43.9236
G1  X48.1446 Y44.3871
G1  X48.3764 Y45.0824
G1  X48.3764 Y45.5459
G1  X48.1446 Y46.2412
G1  X47.6811 Y46.7047
G1  X47.2176 Y46.9364
G1  X46.5223 Y46.9364
M11

G0 X41.4237 Y48.5587

M10
G1  F1500.000000 S0.1
G1  X41.4237 Y43.6918
M11

G0 X52.548 Y46.2412

M10
G1  F1500.000000 S0.1
G1  X52.0845 Y46.7047
G1  X51.621 Y46.9364
G1  X50.9257 Y46.9364
G1  X50.4622 Y46.7047
G1  X49.9987 Y46.2412
G1  X49.7669 Y45.5459
G1  X49.7669 Y45.0824
G1  X49.9987 Y44.3871
G1  X50.4622 Y43.9236
G1  X50.9257 Y43.6918
G1  X51.621 Y43.6918
G1  X52.0845 Y43.9236
G1  X52.548 Y44.3871
M11

G0 X56.7196 Y46.2412

M10
G1  F1500.000000 S0.1
G1  X56.2561 Y46.7047
G1  X55.7926 Y46.9364
G1  X55.0973 Y46.9364
G1  X54.6338 Y46.7047
G1  X54.1703 Y46.2412
G1  X53.9385 Y45.5459
G1  X53.9385 Y45.0824
G1  X54.1703 Y44.3871
G1  X54.6338 Y43.9236
G1  X55.0973 Y43.6918
G1  X55.7926 Y43.6918
G1  X56.2561 Y43.9236
G1  X56.7196 Y44.3871
M11

G0 X56.7196 Y46.9364

M10
G1  F1500.000000 S0.1
G1  X56.7196 Y43.6918
M11

G0 X60.196 Y45.5459

M10
G1  F1500.000000 S0.1
G1  X62.977 Y45.5459
G1  X62.977 Y46.0094
G1  X62.7453 Y46.4729
G1  X62.5135 Y46.7047
G1  X62.05 Y46.9364
G1  X61.3547 Y46.9364
G1  X60.8912 Y46.7047
G1  X60.4277 Y46.2412
G1  X60.196 Y45.5459
G1  X60.196 Y45.0824
G1  X60.4277 Y44.3871
G1  X60.8912 Y43.9236
G1  X61.3547 Y43.6918
G1  X62.05 Y43.6918
G1  X62.5135 Y43.9236
G1  X62.977 Y44.3871
M11

G0 X58.5737 Y48.5587

M10
G1  F1500.000000 S0.1
G1  X58.5737 Y43.6918
M11

(calque: decoupe)
G0 X1.0426 Y50.9602

M10
G1  F1000 S1.0
G1  X70.9574 Y50.9602 F1100.000000 S1.0
G1  X70.9574 Y1.0454
G1  X1.0426 Y1.0454
G1  X1.0426 Y50.9602
M11

G0 X0.000 Y0.000
M05
M02
