M117 Initialisation
M117 Home Y
G28 Y0 F1000
G92 Y285
M117 Home X
G28 X0
G92 X0
M117 Home Z
G28 Z0
G92 Z0
G0 Z10 F100
M117 Deplacement X/Y
G0 X15 Y0 F7500
M117 Set Zeros X/Y
G92 X0 Y0
M106
M117 Laser Rouge :)
